<?xml version="1.0" encoding="utf-8"?>
<svg xmlns="http://www.w3.org/2000/svg" xmlns:xlink="http://www.w3.org/1999/xlink" style="margin: auto; background: none; display: block; shape-rendering: auto;" width="174px" height="174px" viewBox="0 0 100 100" preserveAspectRatio="xMidYMid">
<path d="M73.2 50A23.200000000000003 23.200000000000003 0 1 1 30.81173067683016 36.959665633830575 L29.493903345590116 29.493903345590123 L36.95966563383056 30.81173067683017 A23.200000000000003 23.200000000000003 0 0 1 73.2 50" stroke-width="3" stroke="#d2d2cb" fill="none"></path>
<circle cx="50" cy="50" r="13.63" stroke-width="3" stroke="#d2d2cb" stroke-dasharray="21.409953934214442 21.409953934214442" fill="none" stroke-linecap="round" transform="rotate(69.933 50 50)">
  <animateTransform attributeName="transform" type="rotate" repeatCount="indefinite" dur="0.8620689655172413s" keyTimes="0;1" values="0 50 50;360 50 50"></animateTransform>
</circle>
<!-- [ldio] generated by https://loading.io/ --></svg>